ce1901/lab/01_intro/simulation/qsim/introduction.msim.vcd
$comment
	File created using the following command:
		vcd file introduction.msim.vcd -direction
$end
$date
	Tue Dec 07 15:50:01 2021
$end
$version
	ModelSim Version 2020.1
$end
$timescale
	1ps
$end

$scope module introduction_vlg_vec_tst $end
$var reg 1 ! A $end
$var reg 1 " B $end
$var reg 1 # C $end
$var reg 1 $ D $end
$var wire 1 % B711 $end

$scope module i1 $end
$var wire 1 & gnd $end
$var wire 1 ' vcc $end
$var wire 1 ( unknown $end
$var tri1 1 ) devclrn $end
$var tri1 1 * devpor $end
$var tri1 1 + devoe $end
$var wire 1 , ~QUARTUS_CREATED_GND~I_combout $end
$var wire 1 - ~QUARTUS_CREATED_UNVM~~busy $end
$var wire 1 . ~QUARTUS_CREATED_ADC1~~eoc $end
$var wire 1 / ~QUARTUS_CREATED_ADC2~~eoc $end
$var wire 1 0 B711~output_o $end
$var wire 1 1 A~input_o $end
$var wire 1 2 B~input_o $end
$var wire 1 3 C~input_o $end
$var wire 1 4 D~input_o $end
$var wire 1 5 inst3~combout $end
$upscope $end
$upscope $end
$enddefinitions $end
#0
$dumpvars
0!
0"
0#
0$
0%
0&
1'
x(
1)
1*
1+
0,
z-
z.
z/
00
01
02
03
04
05
$end
#62500
1$
14
#125000
1#
0$
04
13
#187500
1$
14
#250000
1"
0#
0$
04
03
12
#312500
1$
14
#375000
1#
0$
04
13
#437500
1$
14
15
10
1%
#500000
1!
0"
0#
0$
04
03
02
11
#562500
1$
14
#625000
1#
0$
04
13
#687500
1$
14
#750000
1"
0#
0$
04
03
12
05
00
0%
#812500
1$
14
#875000
1#
0$
04
13
#937500
1$
14
