ce1901/lab/04_csop/simulation/qsim/csop.msim.vcd
$comment
	File created using the following command:
		vcd file csop.msim.vcd -direction
$end
$date
	Tue Jan 04 15:39:33 2022
$end
$version
	ModelSim Version 2020.1
$end
$timescale
	1ps
$end

$scope module identicaloutsidexor_vlg_vec_tst $end
$var reg 1 ! PIN00 $end
$var reg 1 " PIN01 $end
$var reg 1 # PIN02 $end
$var wire 1 $ DIFF_IDENT_PIN08 $end

$scope module i1 $end
$var wire 1 % gnd $end
$var wire 1 & vcc $end
$var wire 1 ' unknown $end
$var tri1 1 ( devclrn $end
$var tri1 1 ) devpor $end
$var tri1 1 * devoe $end
$var wire 1 + ~QUARTUS_CREATED_GND~I_combout $end
$var wire 1 , PIN01~input_o $end
$var wire 1 - PIN00~input_o $end
$var wire 1 . PIN02~input_o $end
$var wire 1 / inst2~combout $end
$upscope $end
$upscope $end
$enddefinitions $end
#0
$dumpvars
0!
0"
0#
0$
0%
1&
x'
1(
1)
1*
0+
0,
0-
0.
0/
$end
#125000
1#
1.
#250000
1"
0#
1,
0.
1/
1$
#375000
1#
1.
0/
0$
#500000
1!
0"
0#
1-
0,
0.
#625000
1#
1.
1/
1$
#750000
1"
0#
1,
0.
0/
0$
#875000
1#
1.
