ce1901/vhdl/hw09/simulation/qsim/hw09structural.msim.vcd
$comment
	File created using the following command:
		vcd file hw09structural.msim.vcd -direction
$end
$date
	Fri Feb 18 12:32:45 2022
$end
$version
	ModelSim Version 2020.1
$end
$timescale
	1ps
$end

$scope module orbrcas16_vhd_vec_tst $end
$var wire 1 ! A [15] $end
$var wire 1 " A [14] $end
$var wire 1 # A [13] $end
$var wire 1 $ A [12] $end
$var wire 1 % A [11] $end
$var wire 1 & A [10] $end
$var wire 1 ' A [9] $end
$var wire 1 ( A [8] $end
$var wire 1 ) A [7] $end
$var wire 1 * A [6] $end
$var wire 1 + A [5] $end
$var wire 1 , A [4] $end
$var wire 1 - A [3] $end
$var wire 1 . A [2] $end
$var wire 1 / A [1] $end
$var wire 1 0 A [0] $end
$var wire 1 1 B [15] $end
$var wire 1 2 B [14] $end
$var wire 1 3 B [13] $end
$var wire 1 4 B [12] $end
$var wire 1 5 B [11] $end
$var wire 1 6 B [10] $end
$var wire 1 7 B [9] $end
$var wire 1 8 B [8] $end
$var wire 1 9 B [7] $end
$var wire 1 : B [6] $end
$var wire 1 ; B [5] $end
$var wire 1 < B [4] $end
$var wire 1 = B [3] $end
$var wire 1 > B [2] $end
$var wire 1 ? B [1] $end
$var wire 1 @ B [0] $end
$var wire 1 A C $end
$var wire 1 B OV $end
$var wire 1 C S [15] $end
$var wire 1 D S [14] $end
$var wire 1 E S [13] $end
$var wire 1 F S [12] $end
$var wire 1 G S [11] $end
$var wire 1 H S [10] $end
$var wire 1 I S [9] $end
$var wire 1 J S [8] $end
$var wire 1 K S [7] $end
$var wire 1 L S [6] $end
$var wire 1 M S [5] $end
$var wire 1 N S [4] $end
$var wire 1 O S [3] $end
$var wire 1 P S [2] $end
$var wire 1 Q S [1] $end
$var wire 1 R S [0] $end
$var wire 1 S SUB $end

$scope module i1 $end
$var wire 1 T gnd $end
$var wire 1 U vcc $end
$var wire 1 V unknown $end
$var wire 1 W devoe $end
$var wire 1 X devclrn $end
$var wire 1 Y devpor $end
$var wire 1 Z ww_devoe $end
$var wire 1 [ ww_devclrn $end
$var wire 1 \ ww_devpor $end
$var wire 1 ] ww_A [15] $end
$var wire 1 ^ ww_A [14] $end
$var wire 1 _ ww_A [13] $end
$var wire 1 ` ww_A [12] $end
$var wire 1 a ww_A [11] $end
$var wire 1 b ww_A [10] $end
$var wire 1 c ww_A [9] $end
$var wire 1 d ww_A [8] $end
$var wire 1 e ww_A [7] $end
$var wire 1 f ww_A [6] $end
$var wire 1 g ww_A [5] $end
$var wire 1 h ww_A [4] $end
$var wire 1 i ww_A [3] $end
$var wire 1 j ww_A [2] $end
$var wire 1 k ww_A [1] $end
$var wire 1 l ww_A [0] $end
$var wire 1 m ww_B [15] $end
$var wire 1 n ww_B [14] $end
$var wire 1 o ww_B [13] $end
$var wire 1 p ww_B [12] $end
$var wire 1 q ww_B [11] $end
$var wire 1 r ww_B [10] $end
$var wire 1 s ww_B [9] $end
$var wire 1 t ww_B [8] $end
$var wire 1 u ww_B [7] $end
$var wire 1 v ww_B [6] $end
$var wire 1 w ww_B [5] $end
$var wire 1 x ww_B [4] $end
$var wire 1 y ww_B [3] $end
$var wire 1 z ww_B [2] $end
$var wire 1 { ww_B [1] $end
$var wire 1 | ww_B [0] $end
$var wire 1 } ww_SUB $end
$var wire 1 ~ ww_S [15] $end
$var wire 1 !! ww_S [14] $end
$var wire 1 "! ww_S [13] $end
$var wire 1 #! ww_S [12] $end
$var wire 1 $! ww_S [11] $end
$var wire 1 %! ww_S [10] $end
$var wire 1 &! ww_S [9] $end
$var wire 1 '! ww_S [8] $end
$var wire 1 (! ww_S [7] $end
$var wire 1 )! ww_S [6] $end
$var wire 1 *! ww_S [5] $end
$var wire 1 +! ww_S [4] $end
$var wire 1 ,! ww_S [3] $end
$var wire 1 -! ww_S [2] $end
$var wire 1 .! ww_S [1] $end
$var wire 1 /! ww_S [0] $end
$var wire 1 0! ww_C $end
$var wire 1 1! ww_OV $end
$var wire 1 2! \~QUARTUS_CREATED_GND~I_combout\ $end
$var wire 1 3! \B[0]~input_o\ $end
$var wire 1 4! \A[0]~input_o\ $end
$var wire 1 5! \rcas|fa0|Mux0~0_combout\ $end
$var wire 1 6! \A[1]~input_o\ $end
$var wire 1 7! \B[1]~input_o\ $end
$var wire 1 8! \SUB~input_o\ $end
$var wire 1 9! \rcas|bitslice_fa:1:faN|Mux0~0_combout\ $end
$var wire 1 :! \A[2]~input_o\ $end
$var wire 1 ;! \rcas|bitslice_fa:1:faN|Mux1~0_combout\ $end
$var wire 1 <! \B[2]~input_o\ $end
$var wire 1 =! \rcas|TO_B[2]~0_combout\ $end
$var wire 1 >! \rcas|bitslice_fa:2:faN|Mux0~0_combout\ $end
$var wire 1 ?! \rcas|bitslice_fa:2:faN|Mux1~0_combout\ $end
$var wire 1 @! \B[3]~input_o\ $end
$var wire 1 A! \rcas|TO_B[3]~1_combout\ $end
$var wire 1 B! \A[3]~input_o\ $end
$var wire 1 C! \rcas|bitslice_fa:3:faN|Mux0~0_combout\ $end
$var wire 1 D! \A[4]~input_o\ $end
$var wire 1 E! \B[4]~input_o\ $end
$var wire 1 F! \rcas|bitslice_fa:4:faN|Mux0~0_combout\ $end
$var wire 1 G! \B[5]~input_o\ $end
$var wire 1 H! \rcas|TO_B[5]~2_combout\ $end
$var wire 1 I! \A[5]~input_o\ $end
$var wire 1 J! \rcas|bitslice_fa:4:faN|Mux1~0_combout\ $end
$var wire 1 K! \rcas|bitslice_fa:4:faN|Mux1~1_combout\ $end
$var wire 1 L! \rcas|bitslice_fa:4:faN|Mux1~2_combout\ $end
$var wire 1 M! \rcas|bitslice_fa:4:faN|Mux1~3_combout\ $end
$var wire 1 N! \rcas|bitslice_fa:5:faN|Mux0~0_combout\ $end
$var wire 1 O! \A[6]~input_o\ $end
$var wire 1 P! \B[6]~input_o\ $end
$var wire 1 Q! \rcas|TO_B[6]~3_combout\ $end
$var wire 1 R! \rcas|bitslice_fa:6:faN|Mux0~0_combout\ $end
$var wire 1 S! \B[7]~input_o\ $end
$var wire 1 T! \rcas|TO_B[7]~4_combout\ $end
$var wire 1 U! \A[7]~input_o\ $end
$var wire 1 V! \rcas|bitslice_fa:6:faN|Mux1~0_combout\ $end
$var wire 1 W! \rcas|bitslice_fa:7:faN|Mux0~0_combout\ $end
$var wire 1 X! \A[8]~input_o\ $end
$var wire 1 Y! \B[8]~input_o\ $end
$var wire 1 Z! \rcas|TO_B[8]~5_combout\ $end
$var wire 1 [! \rcas|bitslice_fa:8:faN|Mux0~0_combout\ $end
$var wire 1 \! \B[9]~input_o\ $end
$var wire 1 ]! \rcas|TO_B[9]~6_combout\ $end
$var wire 1 ^! \A[9]~input_o\ $end
$var wire 1 _! \rcas|bitslice_fa:8:faN|Mux1~0_combout\ $end
$var wire 1 `! \rcas|bitslice_fa:9:faN|Mux0~0_combout\ $end
$var wire 1 a! \rcas|bitslice_fa:9:faN|Mux1~0_combout\ $end
$var wire 1 b! \B[10]~input_o\ $end
$var wire 1 c! \rcas|TO_B[10]~7_combout\ $end
$var wire 1 d! \A[10]~input_o\ $end
$var wire 1 e! \rcas|bitslice_fa:9:faN|Mux1~1_combout\ $end
$var wire 1 f! \rcas|bitslice_fa:9:faN|Mux1~2_combout\ $end
$var wire 1 g! \rcas|bitslice_fa:10:faN|Mux0~0_combout\ $end
$var wire 1 h! \B[11]~input_o\ $end
$var wire 1 i! \rcas|TO_B[11]~8_combout\ $end
$var wire 1 j! \A[11]~input_o\ $end
$var wire 1 k! \rcas|bitslice_fa:11:faN|Mux0~0_combout\ $end
$var wire 1 l! \rcas|bitslice_fa:11:faN|Mux1~0_combout\ $end
$var wire 1 m! \A[12]~input_o\ $end
$var wire 1 n! \B[12]~input_o\ $end
$var wire 1 o! \rcas|TO_B[12]~9_combout\ $end
$var wire 1 p! \rcas|bitslice_fa:12:faN|Mux0~0_combout\ $end
$var wire 1 q! \A[13]~input_o\ $end
$var wire 1 r! \B[13]~input_o\ $end
$var wire 1 s! \rcas|TO_B[13]~10_combout\ $end
$var wire 1 t! \rcas|bitslice_fa:13:faN|Mux0~0_combout\ $end
$var wire 1 u! \A[14]~input_o\ $end
$var wire 1 v! \B[14]~input_o\ $end
$var wire 1 w! \rcas|bitslice_fa:14:faN|Mux0~0_combout\ $end
$var wire 1 x! \rcas|bitslice_fa:14:faN|Mux0~1_combout\ $end
$var wire 1 y! \A[15]~input_o\ $end
$var wire 1 z! \rcas|bitslice_fa:13:faN|Mux1~0_combout\ $end
$var wire 1 {! \B[15]~input_o\ $end
$var wire 1 |! \rcas|bitslice_fa:15:faN|Mux0~0_combout\ $end
$var wire 1 }! \rcas|OV~0_combout\ $end
$var wire 1 ~! \ALT_INV_B[15]~input_o\ $end
$var wire 1 !" \ALT_INV_A[15]~input_o\ $end
$var wire 1 "" \ALT_INV_B[14]~input_o\ $end
$var wire 1 #" \ALT_INV_A[14]~input_o\ $end
$var wire 1 $" \ALT_INV_B[13]~input_o\ $end
$var wire 1 %" \ALT_INV_A[13]~input_o\ $end
$var wire 1 &" \ALT_INV_B[12]~input_o\ $end
$var wire 1 '" \ALT_INV_A[12]~input_o\ $end
$var wire 1 (" \ALT_INV_B[11]~input_o\ $end
$var wire 1 )" \ALT_INV_A[11]~input_o\ $end
$var wire 1 *" \ALT_INV_B[10]~input_o\ $end
$var wire 1 +" \ALT_INV_A[10]~input_o\ $end
$var wire 1 ," \ALT_INV_B[9]~input_o\ $end
$var wire 1 -" \ALT_INV_A[9]~input_o\ $end
$var wire 1 ." \ALT_INV_B[8]~input_o\ $end
$var wire 1 /" \ALT_INV_A[8]~input_o\ $end
$var wire 1 0" \ALT_INV_B[7]~input_o\ $end
$var wire 1 1" \ALT_INV_A[7]~input_o\ $end
$var wire 1 2" \ALT_INV_B[6]~input_o\ $end
$var wire 1 3" \ALT_INV_A[6]~input_o\ $end
$var wire 1 4" \ALT_INV_B[5]~input_o\ $end
$var wire 1 5" \ALT_INV_A[5]~input_o\ $end
$var wire 1 6" \ALT_INV_B[4]~input_o\ $end
$var wire 1 7" \ALT_INV_A[4]~input_o\ $end
$var wire 1 8" \ALT_INV_B[3]~input_o\ $end
$var wire 1 9" \ALT_INV_A[3]~input_o\ $end
$var wire 1 :" \ALT_INV_B[2]~input_o\ $end
$var wire 1 ;" \ALT_INV_A[2]~input_o\ $end
$var wire 1 <" \ALT_INV_SUB~input_o\ $end
$var wire 1 =" \ALT_INV_B[1]~input_o\ $end
$var wire 1 >" \ALT_INV_A[1]~input_o\ $end
$var wire 1 ?" \ALT_INV_B[0]~input_o\ $end
$var wire 1 @" \ALT_INV_A[0]~input_o\ $end
$var wire 1 A" \rcas|bitslice_fa:13:faN|ALT_INV_Mux1~0_combout\ $end
$var wire 1 B" \rcas|bitslice_fa:14:faN|ALT_INV_Mux0~0_combout\ $end
$var wire 1 C" \rcas|ALT_INV_TO_B[13]~10_combout\ $end
$var wire 1 D" \rcas|bitslice_fa:11:faN|ALT_INV_Mux1~0_combout\ $end
$var wire 1 E" \rcas|ALT_INV_TO_B[12]~9_combout\ $end
$var wire 1 F" \rcas|ALT_INV_TO_B[11]~8_combout\ $end
$var wire 1 G" \rcas|bitslice_fa:9:faN|ALT_INV_Mux1~2_combout\ $end
$var wire 1 H" \rcas|bitslice_fa:9:faN|ALT_INV_Mux1~1_combout\ $end
$var wire 1 I" \rcas|bitslice_fa:9:faN|ALT_INV_Mux1~0_combout\ $end
$var wire 1 J" \rcas|ALT_INV_TO_B[10]~7_combout\ $end
$var wire 1 K" \rcas|bitslice_fa:8:faN|ALT_INV_Mux1~0_combout\ $end
$var wire 1 L" \rcas|ALT_INV_TO_B[9]~6_combout\ $end
$var wire 1 M" \rcas|ALT_INV_TO_B[8]~5_combout\ $end
$var wire 1 N" \rcas|bitslice_fa:6:faN|ALT_INV_Mux1~0_combout\ $end
$var wire 1 O" \rcas|ALT_INV_TO_B[7]~4_combout\ $end
$var wire 1 P" \rcas|ALT_INV_TO_B[6]~3_combout\ $end
$var wire 1 Q" \rcas|bitslice_fa:4:faN|ALT_INV_Mux1~3_combout\ $end
$var wire 1 R" \rcas|bitslice_fa:4:faN|ALT_INV_Mux1~2_combout\ $end
$var wire 1 S" \rcas|bitslice_fa:4:faN|ALT_INV_Mux1~1_combout\ $end
$var wire 1 T" \rcas|bitslice_fa:4:faN|ALT_INV_Mux1~0_combout\ $end
$var wire 1 U" \rcas|ALT_INV_TO_B[5]~2_combout\ $end
$var wire 1 V" \rcas|bitslice_fa:2:faN|ALT_INV_Mux1~0_combout\ $end
$var wire 1 W" \rcas|ALT_INV_TO_B[3]~1_combout\ $end
$var wire 1 X" \rcas|bitslice_fa:1:faN|ALT_INV_Mux1~0_combout\ $end
$var wire 1 Y" \rcas|ALT_INV_TO_B[2]~0_combout\ $end
$upscope $end
$upscope $end
$enddefinitions $end
#0
$dumpvars
0A
0B
0S
0T
1U
xV
1W
1X
1Y
1Z
1[
1\
0}
00!
01!
x2!
13!
14!
05!
06!
17!
08!
09!
1:!
1;!
1<!
1=!
1>!
1?!
0@!
0A!
1B!
0C!
1D!
1E!
1F!
1G!
1H!
0I!
1J!
0K!
1L!
0M!
0N!
0O!
1P!
1Q!
0R!
0S!
0T!
0U!
0V!
1W!
0X!
1Y!
1Z!
1[!
1\!
1]!
0^!
0_!
1`!
0a!
0b!
0c!
0d!
0e!
0f!
0g!
0h!
0i!
0j!
0k!
1l!
0m!
1n!
1o!
1p!
1q!
0r!
0s!
1t!
1u!
1v!
0w!
0x!
1y!
0z!
0{!
0|!
0}!
1~!
0!"
0""
0#"
1$"
0%"
0&"
1'"
1("
1)"
1*"
1+"
0,"
1-"
0."
1/"
10"
11"
02"
13"
04"
15"
06"
07"
18"
09"
0:"
0;"
1<"
0="
1>"
0?"
0@"
1A"
1B"
1C"
0D"
0E"
1F"
1G"
1H"
1I"
1J"
1K"
0L"
0M"
1N"
1O"
0P"
1Q"
0R"
1S"
0T"
0U"
0V"
1W"
0X"
0Y"
1!
1"
1#
0$
0%
0&
0'
0(
0)
0*
0+
1,
1-
1.
0/
10
01
12
03
14
05
06
17
18
09
1:
1;
1<
0=
1>
1?
1@
1]
1^
1_
0`
0a
0b
0c
0d
0e
0f
0g
1h
1i
1j
0k
1l
0m
1n
0o
1p
0q
0r
1s
1t
0u
1v
1w
1x
0y
1z
1{
1|
0~
0!!
1"!
1#!
0$!
0%!
1&!
1'!
1(!
0)!
0*!
1+!
0,!
1-!
0.!
0/!
0C
0D
1E
1F
0G
0H
1I
1J
1K
0L
0M
1N
0O
1P
0Q
0R
$end
#62500
0!
0#
1'
1(
1*
1+
0,
0-
0.
1/
13
16
08
19
0:
0;
0<
1k
0j
0i
0h
1g
1f
1d
1c
0_
0]
0x
0w
0v
1u
0t
1r
1o
1r!
1b!
0Y!
1S!
0P!
0G!
0E!
0y!
0q!
1^!
1X!
1O!
1I!
0D!
0B!
0:!
16!
0>"
1;"
19"
17"
05"
03"
0/"
0-"
1%"
1!"
16"
14"
12"
00"
1."
0*"
0$"
1s!
1c!
0Z!
1T!
0Q!
0H!
1|!
1}!
0t!
0`!
1a!
0[!
1_!
1f!
1N!
1R!
0J!
1K!
1C!
0F!
0>!
0L!
19!
1R"
0S"
1T"
0G"
0K"
0I"
1U"
1P"
0O"
1M"
0J"
0C"
1t!
0W!
0N!
0R!
1`!
1k!
1M!
1V!
0N"
0Q"
1.!
0-!
0+!
1,!
1)!
1*!
0'!
0&!
0"!
11!
1~
1N!
1R!
1W!
1[!
0_!
0f!
1Q
0P
1O
0N
1M
1L
0J
0I
0E
1C
1B
1G"
1K"
1$!
1&!
0)!
0*!
0(!
1"!
0`!
0M
0L
0K
1I
1G
1E
1'!
1(!
1)!
1*!
1M
1L
1K
1J
0&!
0I
#125000
1#
0(
1.
0/
06
18
1:
1$
1%
1)
00
11
02
04
07
0?
0@
0l
0k
1j
1e
0d
1a
1`
1_
0|
0{
1v
1t
0s
0r
0p
0n
1m
1{!
0v!
0n!
0b!
0\!
1Y!
1P!
07!
03!
1q!
1m!
1j!
0X!
1U!
1:!
06!
04!
1@"
1>"
0;"
01"
1/"
0)"
0'"
0%"
1?"
1="
02"
0."
1,"
1*"
1&"
1""
0~!
1w!
0}!
0o!
0c!
0]!
1Z!
1Q!
0p!
1x!
1z!
0k!
0l!
0W!
1>!
09!
0;!
1X"
1D"
0A"
0P"
0M"
1L"
1J"
1E"
0B"
1g!
1k!
1l!
1`!
0a!
0[!
1_!
1f!
0R!
0V!
0|!
0x!
0>!
1N"
0G"
0K"
1I"
0D"
0.!
1-!
0(!
0$!
1!!
0#!
01!
1p!
0t!
0`!
1W!
0Q
1P
0K
0G
0F
1D
0B
0-!
0!!
0~
0)!
0'!
1&!
1$!
1%!
0P
0L
0J
1I
1H
1G
0D
0C
1(!
0&!
0"!
1#!
1K
0I
1F
0E
#187500
0#
1(
12
14
17
1?
0'
1,
1-
03
09
1;
1<
15
1=
0>
1i
1h
1d
0c
0_
1{
0z
1y
1x
1w
0u
1s
1q
1p
0o
1n
1v!
0r!
1n!
1h!
1\!
0S!
1G!
1E!
1@!
0<!
17!
0q!
0^!
1X!
1D!
1B!
09"
07"
0/"
1-"
1%"
0="
1:"
08"
06"
04"
10"
0,"
0("
0&"
1$"
0""
0w!
0s!
1o!
1i!
1]!
0T!
1H!
1A!
0=!
19!
1t!
1x!
0z!
1`!
1[!
1J!
0K!
0C!
1F!
1S"
0T"
1A"
1Y"
0W"
0U"
1O"
0L"
0F"
0E"
1C"
1B"
0p!
0x!
0k!
0l!
0`!
0W!
0N!
1R!
1C!
1>!
0?!
0M!
1L!
0R"
1Q"
1V"
1D"
1+!
0,!
1'!
1&!
1!!
1"!
1.!
1p!
0C!
1N!
1Q
0O
1N
1J
1I
1E
1D
1-!
1,!
1)!
0*!
0(!
0&!
0$!
0!!
0#!
1P
1O
0M
1L
0K
0I
0G
0F
0D
1*!
0,!
1#!
0O
1M
1F
#250000
1#
0(
0?
0,
13
0=
1>
16
0:
0*
0+
0h
0g
0f
0d
1_
0{
1z
0y
0v
1r
1o
1r!
1b!
0P!
0@!
1<!
07!
1q!
0X!
0O!
0I!
0D!
17"
15"
13"
1/"
0%"
1="
0:"
18"
12"
0*"
0$"
1s!
1c!
0Q!
0A!
1=!
09!
0t!
1x!
1z!
0[!
0N!
0R!
0J!
1T"
0A"
0Y"
1W"
1P"
0J"
0C"
1t!
0g!
1k!
1R!
1C!
0>!
1?!
1V!
0N"
0V"
0)!
0*!
0'!
1!!
0"!
0.!
0C!
0F!
1W!
1[!
0_!
0f!
0Q
0M
0L
0J
0E
1D
1G"
1K"
0-!
1,!
1)!
1$!
0%!
1"!
1`!
1g!
0k!
0P
1O
1L
0H
1G
1E
1'!
1(!
0+!
0,!
0O
0N
1K
1J
0$!
1%!
1&!
1I
1H
0G
#312500
1?
03
1=
0>
1+
02
07
1'
19
0;
05
0.
1/
08
01
1@
1&
1|
1{
0z
1y
0w
1u
0t
0s
0q
0o
0n
0m
1k
0j
1g
1c
1b
1d!
1^!
1I!
0:!
16!
0{!
0v!
0r!
0h!
0\!
0Y!
1S!
0G!
1@!
0<!
17!
13!
0?"
0="
1:"
08"
14"
00"
1."
1,"
1("
1$"
1""
1~!
0>"
1;"
05"
0-"
0+"
0g!
1k!
0`!
1a!
1N!
1>!
0?!
0L!
1w!
1|!
1}!
0s!
0i!
0]!
0Z!
1T!
0H!
1A!
0=!
15!
1;!
0X"
1Y"
0W"
1U"
0O"
1M"
1L"
1F"
1C"
0B"
1R"
1V"
0I"
1g!
1M!
0t!
0x!
0k!
1`!
0a!
0W!
0N!
1L!
0R"
1I"
0Q"
1/!
11!
1~
1-!
1*!
0&!
1$!
0%!
1N!
0R!
0g!
0M!
1R
1P
1M
0I
0H
1G
1C
1B
1Q"
0*!
0(!
1&!
0$!
0!!
0"!
1%!
0N!
1R!
0M
0K
1I
1H
0G
0E
0D
0%!
0)!
1*!
1M
0L
0H
1)!
0*!
0M
1L
#375000
13
0=
1>
0+
12
0'
09
1.
18
11
0@
0#
1(
1:
1*
0$
10
0|
1z
0y
1v
0u
1t
1o
1n
1m
1l
1j
0g
1f
1d
0c
0`
0_
0q!
0m!
0^!
1X!
1O!
0I!
1:!
14!
1{!
1v!
1r!
1Y!
0S!
1P!
0@!
1<!
03!
1?"
0:"
18"
02"
10"
0."
0$"
0""
0~!
0@"
0;"
15"
03"
0/"
1-"
1'"
1%"
0p!
1t!
1x!
0z!
0`!
1e!
0[!
1_!
1f!
1N!
0>!
1?!
0w!
0|!
0}!
1s!
1Z!
0T!
1Q!
0A!
1F!
1=!
0Y"
1W"
0P"
1O"
0M"
0C"
1B"
0V"
0G"
0K"
0H"
1A"
1`!
1g!
0F!
0t!
1z!
1W!
0f!
0R!
0V!
1>!
1N"
1G"
0A"
1+!
01!
0~
0-!
1*!
0'!
0&!
1!!
1"!
0#!
0g!
0W!
1[!
0P
1N
1M
0J
0I
0F
1E
1D
0C
0B
1-!
0)!
1(!
0"!
0+!
1%!
1&!
1P
0N
0L
1K
1I
1H
0E
1'!
0(!
0%!
0K
1J
0H
#437500
1=
0>
19
1@
1#
0(
0*
00
0?
17
1;
0/
0&
06
0)
1!
0"
1|
0{
0z
1y
1w
1u
1s
0r
0l
0k
0f
0e
0d
0b
1_
0^
1]
1y!
0u!
1q!
0d!
0X!
0U!
0O!
06!
04!
0b!
1\!
1S!
1G!
1@!
0<!
07!
13!
0?"
1="
1:"
08"
04"
00"
0,"
1*"
1@"
1>"
13"
11"
1/"
1+"
0%"
1#"
0!"
1w!
1|!
1t!
1g!
1k!
1l!
1W!
0_!
1R!
1V!
0c!
1]!
0e!
1T!
1H!
1A!
0=!
0;!
1X"
1Y"
0W"
0U"
0O"
1H"
0L"
1J"
0N"
1K"
0D"
0B"
1p!
0t!
0x!
0g!
0N!
0R!
0V!
1C!
0?!
1V"
1N"
1)!
1(!
1$!
1%!
1"!
1~
0W!
0[!
1_!
1f!
0C!
1L
1K
1H
1G
1E
1C
0G"
0K"
1,!
0)!
0*!
0%!
0!!
0"!
1#!
0`!
1g!
1O
0M
0L
0H
1F
0E
0D
0,!
0'!
0(!
0O
0K
0J
1%!
0&!
0I
1H
#500000
0#
1*
07
1&
16
1)
1"
03
1+
02
1'
0.
1$
04
0-
0<
0%
1S
0j
0i
1g
1f
1e
1c
1b
0a
1`
0_
1^
0x
0s
1r
0p
0o
0n
1}
18!
0v!
0r!
0n!
1b!
0\!
0E!
1u!
0q!
1m!
0j!
1d!
1^!
1U!
1O!
1I!
0B!
0:!
1;"
19"
05"
03"
01"
0-"
0+"
1)"
0'"
1%"
0#"
16"
1,"
0*"
1&"
1$"
1""
0<"
19!
1=!
0A!
0H!
0Q!
0T!
0Z!
1i!
0w!
0|!
0p!
0g!
1`!
1a!
1W!
1N!
1R!
1C!
1F!
0>!
0L!
1R"
0I"
1B"
0F"
1M"
1O"
1P"
1U"
1W"
0Y"
1>!
0C!
0N!
0R!
0W!
1[!
0_!
0f!
1x!
0k!
0l!
1M!
1V!
0N"
0Q"
1D"
1G"
1K"
0-!
1+!
1,!
1)!
1*!
1(!
1&!
0%!
0#!
0~
1.!
0`!
1p!
1N!
1R!
1W!
0[!
1Q
0P
1O
1N
1M
1L
1K
1I
0H
0F
0C
0$!
1!!
1'!
0(!
0)!
0*!
0,!
1-!
1P
0O
0M
0L
0K
1J
0G
1D
0'!
1(!
1)!
1*!
1#!
0&!
1M
1L
1K
0J
0I
1F
#562500
1#
06
13
12
0'
1.
0$
09
0@
1(
1?
0!
01
15
1,
1j
1h
1d
0c
0`
1_
0]
0|
1{
0u
0r
1q
1o
1n
0m
0{!
1v!
1r!
1h!
0b!
0S!
17!
03!
0y!
1q!
0m!
0^!
1X!
1D!
1:!
0;"
07"
0/"
1-"
1'"
0%"
1!"
1?"
0="
10"
1*"
0("
0$"
0""
1~!
1w!
0s!
0i!
1c!
1T!
05!
0p!
1t!
1`!
0a!
1[!
0F!
1J!
0>!
1?!
0V"
0T"
1I"
0O"
0J"
1F"
1C"
0B"
0t!
0x!
0W!
0[!
1_!
1f!
1k!
1l!
0M!
0V!
1C!
1N"
1Q"
0D"
0G"
0K"
0-!
0+!
1'!
1&!
1"!
0#!
0/!
0`!
1g!
1p!
1t!
1x!
0z!
0N!
0R!
1W!
0R
0P
0N
1J
1I
0F
1E
1A"
1,!
1$!
0'!
0(!
0!!
0"!
1|!
1O
0K
0J
1G
0E
0D
1(!
0)!
0*!
1!!
1"!
1#!
1%!
0&!
0M
0L
1K
0I
1H
1F
1E
1D
1~
1C
#625000
16
1$
19
1@
0(
1!
0,
17
0)
0+
14
1%
0=
0;
1|
0y
0w
1u
1s
1r
1p
0h
0g
0e
0d
1a
1`
1]
1y!
1m!
1j!
0X!
0U!
0I!
0D!
1n!
1b!
1\!
1S!
0G!
0@!
13!
0?"
18"
14"
00"
0,"
0*"
0&"
17"
15"
11"
1/"
0)"
0'"
0!"
0|!
1}!
0p!
0t!
0x!
1z!
0k!
0l!
0W!
1[!
0_!
0f!
1N!
1R!
1V!
0J!
0o!
0c!
0]!
1e!
0T!
1H!
1A!
15!
09!
0W"
0U"
1O"
0H"
1L"
1J"
1E"
1T"
0N"
1G"
1K"
1D"
0A"
1|!
0}!
1M!
1k!
1l!
0[!
0N!
0R!
0C!
1L!
0R"
0D"
0Q"
0.!
1/!
1)!
1*!
1'!
0(!
0$!
0!!
0"!
0#!
11!
0~
1N!
1R!
1p!
1t!
1x!
0z!
0M!
0V!
1R
0Q
1M
1L
0K
1J
0G
0F
0E
0D
0C
1B
1N"
1Q"
1A"
0,!
0)!
0*!
0'!
1$!
01!
1~
0|!
1}!
0N!
0R!
1W!
0O
0M
0L
0J
1G
1C
0B
1!!
1"!
1#!
1)!
1*!
1M
1L
1F
1E
1D
1(!
0)!
0*!
11!
0~
0M
0L
1K
0C
1B
#687500
0$
1(
1,
07
1+
1=
1;
03
1'
0.
0?
11
05
1-
1<
10
1/
08
1l
1k
0j
1i
1h
1g
1d
1c
0`
0{
1y
1x
1w
0t
0s
0q
0o
1m
1{!
0r!
0h!
0\!
0Y!
1G!
1E!
1@!
07!
0m!
1^!
1X!
1I!
1D!
1B!
0:!
16!
14!
0@"
0>"
1;"
09"
07"
05"
0/"
0-"
1'"
1="
08"
06"
04"
1."
1,"
1("
1$"
0~!
1|!
0}!
1s!
1i!
1]!
1Z!
0H!
0A!
0p!
1`!
0e!
1[!
1N!
1C!
1>!
0?!
05!
19!
1;!
0X"
1V"
1H"
1W"
1U"
0M"
0L"
0F"
0C"
0t!
0x!
1z!
0k!
0l!
0`!
1a!
0[!
1_!
0N!
1f!
1F!
0>!
1?!
0V"
0G"
0K"
0I"
1D"
0A"
1.!
0/!
1-!
1,!
1*!
1'!
1&!
0#!
01!
1~
0|!
1p!
1`!
0g!
1k!
0C!
0F!
0R
1Q
1P
1O
1M
1J
1I
0F
1C
0B
0-!
1+!
0*!
0'!
0&!
0$!
0!!
0"!
0P
1N
0M
0J
0I
0G
0E
0D
0+!
0,!
1$!
0%!
1&!
1#!
0~
0O
0N
1I
0H
1G
1F
0C
#750000
1$
0(
0+
15
0-
0<
00
06
0@
0!
04
02
0"
1>
0l
0i
0g
0d
1`
0^
0]
0|
1z
0x
0r
1q
0p
0n
0v!
0n!
1h!
0b!
0E!
1<!
03!
0y!
0u!
1m!
0X!
0I!
0B!
04!
1@"
19"
15"
1/"
0'"
1#"
1!"
1?"
0:"
16"
1*"
0("
1&"
1""
1o!
0i!
1c!
1J!
0=!
1|!
1}!
0p!
1t!
1[!
0_!
0f!
1N!
1R!
1V!
1C!
0L!
1R"
0N"
1G"
1K"
1Y"
0T"
0J"
1F"
0E"
1p!
1>!
0?!
0`!
1g!
0k!
0W!
1V"
1,!
1)!
1*!
1'!
1"!
0#!
11!
1~
0C!
1O
1M
1L
1J
0F
1E
1C
1B
0(!
0$!
1%!
0&!
1-!
1#!
1P
0K
0I
1H
0G
1F
0,!
0O
#812500
0$
1(
14
0>
13
1.
01
0/
18
09
1)
0#
0*
0:
0k
1j
0f
1e
1d
0`
0_
0z
0v
0u
1t
1p
1o
0m
0{!
1r!
1n!
1Y!
0S!
0P!
0<!
0q!
0m!
1X!
1U!
0O!
1:!
06!
1>"
0;"
13"
01"
0/"
1'"
1%"
1:"
12"
10"
0."
0&"
0$"
1~!
0|!
0}!
0s!
0o!
0Z!
1T!
1Q!
1=!
0p!
0t!
1W!
0[!
1_!
1f!
0R!
0>!
1?!
09!
0V"
0G"
0K"
0Y"
0P"
0O"
1M"
1E"
1C"
1p!
1x!
0z!
0W!
1R!
1>!
1`!
1C!
1A"
0.!
0-!
0)!
0'!
1(!
0"!
0#!
01!
0~
1|!
0Q
0P
0L
1K
0J
0F
0E
0C
0B
1,!
1&!
1-!
1)!
0(!
1!!
1#!
1P
1O
1L
0K
1I
1F
1D
1~
1C
