ce1901/vhdl/hw08/simulation/qsim/hw08_vhdl.msim.vcd
$comment
	File created using the following command:
		vcd file hw08_vhdl.msim.vcd -direction
$end
$date
	Wed Feb 09 15:33:45 2022
$end
$version
	ModelSim Version 2020.1
$end
$timescale
	1ps
$end

$scope module orbpe8to1_vhd_vec_tst $end
$var wire 1 ! A [7] $end
$var wire 1 " A [6] $end
$var wire 1 # A [5] $end
$var wire 1 $ A [4] $end
$var wire 1 % A [3] $end
$var wire 1 & A [2] $end
$var wire 1 ' A [1] $end
$var wire 1 ( A [0] $end
$var wire 1 ) NONE $end
$var wire 1 * Y [2] $end
$var wire 1 + Y [1] $end
$var wire 1 , Y [0] $end

$scope module i1 $end
$var wire 1 - gnd $end
$var wire 1 . vcc $end
$var wire 1 / unknown $end
$var wire 1 0 devoe $end
$var wire 1 1 devclrn $end
$var wire 1 2 devpor $end
$var wire 1 3 ww_devoe $end
$var wire 1 4 ww_devclrn $end
$var wire 1 5 ww_devpor $end
$var wire 1 6 ww_A [7] $end
$var wire 1 7 ww_A [6] $end
$var wire 1 8 ww_A [5] $end
$var wire 1 9 ww_A [4] $end
$var wire 1 : ww_A [3] $end
$var wire 1 ; ww_A [2] $end
$var wire 1 < ww_A [1] $end
$var wire 1 = ww_A [0] $end
$var wire 1 > ww_Y [2] $end
$var wire 1 ? ww_Y [1] $end
$var wire 1 @ ww_Y [0] $end
$var wire 1 A ww_NONE $end
$var wire 1 B \~QUARTUS_CREATED_GND~I_combout\ $end
$var wire 1 C \A[6]~input_o\ $end
$var wire 1 D \A[3]~input_o\ $end
$var wire 1 E \A[0]~input_o\ $end
$var wire 1 F \A[1]~input_o\ $end
$var wire 1 G \A[2]~input_o\ $end
$var wire 1 H \Equal0~1_combout\ $end
$var wire 1 I \Y[0]~0_combout\ $end
$var wire 1 J \A[5]~input_o\ $end
$var wire 1 K \A[7]~input_o\ $end
$var wire 1 L \A[4]~input_o\ $end
$var wire 1 M \comb~0_combout\ $end
$var wire 1 N \comb~1_combout\ $end
$var wire 1 O \Y[0]$latch~combout\ $end
$var wire 1 P \Equal0~0_combout\ $end
$var wire 1 Q \Y[1]~1_combout\ $end
$var wire 1 R \comb~3_combout\ $end
$var wire 1 S \comb~2_combout\ $end
$var wire 1 T \Y[1]$latch~combout\ $end
$var wire 1 U \comb~4_combout\ $end
$var wire 1 V \Y[2]$latch~combout\ $end
$var wire 1 W \Equal0~2_combout\ $end
$var wire 1 X \ALT_INV_Equal0~0_combout\ $end
$var wire 1 Y \ALT_INV_Equal0~1_combout\ $end
$var wire 1 Z \ALT_INV_A[3]~input_o\ $end
$var wire 1 [ \ALT_INV_A[2]~input_o\ $end
$var wire 1 \ \ALT_INV_A[1]~input_o\ $end
$var wire 1 ] \ALT_INV_A[0]~input_o\ $end
$var wire 1 ^ \ALT_INV_A[6]~input_o\ $end
$var wire 1 _ \ALT_INV_A[4]~input_o\ $end
$var wire 1 ` \ALT_INV_A[7]~input_o\ $end
$var wire 1 a \ALT_INV_A[5]~input_o\ $end
$var wire 1 b \ALT_INV_Y[2]$latch~combout\ $end
$var wire 1 c \ALT_INV_Y[1]$latch~combout\ $end
$var wire 1 d \ALT_INV_Y[0]$latch~combout\ $end
$var wire 1 e \ALT_INV_comb~4_combout\ $end
$var wire 1 f \ALT_INV_comb~3_combout\ $end
$var wire 1 g \ALT_INV_comb~2_combout\ $end
$var wire 1 h \ALT_INV_Y[1]~1_combout\ $end
$var wire 1 i \ALT_INV_comb~1_combout\ $end
$var wire 1 j \ALT_INV_comb~0_combout\ $end
$var wire 1 k \ALT_INV_Y[0]~0_combout\ $end
$upscope $end
$upscope $end
$enddefinitions $end
#0
$dumpvars
0)
0-
1.
x/
10
11
12
13
14
15
0A
xB
1C
1D
1E
1F
0G
0H
0I
0J
0K
1L
1M
0N
0O
0P
0Q
1R
0S
1T
0U
1V
0W
1X
1Y
0Z
1[
0\
0]
0^
0_
1`
1a
0b
0c
1d
1e
0f
1g
1h
1i
0j
1k
0!
1"
0#
1$
1%
0&
1'
1(
06
17
08
19
1:
0;
1<
1=
1>
1?
0@
1*
1+
0,
$end
#62500
0"
1#
0$
0%
1&
0'
0(
0=
0<
1;
0:
09
18
07
0C
1J
0L
0D
1G
0F
0E
1]
1\
0[
1Z
1_
0a
1^
0M
1N
1Q
1I
0k
0h
0i
1j
1O
0R
1S
0g
1f
0d
0T
1c
1@
1,
0?
0+
#125000
1"
1$
1%
0&
1(
1=
0;
1:
19
17
1C
1L
1D
0G
1E
0]
1[
0Z
0_
0^
1M
0N
0I
0Q
1h
1k
1i
0j
0O
1R
0S
1g
0f
1d
1T
0c
0@
0,
1?
1+
#187500
0"
1&
1'
1!
1<
1;
07
16
1K
0C
1G
1F
0\
0[
1^
0`
0M
1N
0i
1j
1O
0d
1@
1,
#250000
1"
0'
0(
0#
0=
0<
08
17
1C
0J
0F
0E
1]
1\
1a
0^
#312500
1(
1#
0&
0%
1=
0;
0:
18
1J
0D
0G
1E
0]
1[
1Z
0a
1I
0k
#375000
0#
1&
0"
1'
0!
1<
1;
08
07
06
0K
0C
0J
1G
1F
0\
0[
1a
1^
1`
1M
0N
1Q
0h
1i
0j
0O
0R
1S
0g
1f
1d
0T
1c
0@
0,
0?
0+
#437500
0&
0'
0(
0$
0=
0<
0;
09
0L
0G
0F
0E
1]
1\
1[
1_
1P
1H
0Y
0X
0M
0S
1W
1g
1j
1A
1)
#500000
1&
1$
1#
1%
1;
1:
19
18
1J
1L
1D
1G
0[
0Z
0_
0a
1N
0P
0H
0I
1k
1Y
1X
0i
1O
1S
0W
0g
0d
0A
1@
0)
1,
#562500
0$
0#
0%
1"
0:
09
08
17
1C
0J
0L
0D
1Z
1_
1a
0^
1M
0N
1I
0Q
1h
0k
1i
0j
0O
1R
0S
1g
0f
1d
1T
0c
0@
0,
1?
1+
#625000
1$
0"
1'
1(
1=
1<
19
07
0C
1L
1F
1E
0]
0\
0_
1^
1Q
0h
0R
1S
0g
1f
0T
1c
0?
0+
#687500
1"
0'
1!
0<
17
16
1K
1C
0F
1\
0^
0`
0M
1N
0Q
1h
0i
1j
1O
1R
0S
1g
0f
0d
1T
0c
1@
1,
1?
1+
#750000
1'
0!
0$
1#
0&
1<
0;
09
18
06
0K
1J
0L
0G
1F
0\
1[
1_
0a
1`
1M
0N
0I
1k
1i
0j
0O
1d
0@
0,
#812500
1$
0(
1%
0=
1:
19
1L
1D
0E
1]
0Z
0_
#875000
1(
0%
1!
1&
1=
1;
0:
16
1K
0D
1G
1E
0]
0[
1Z
0`
0M
1N
1I
0k
0i
1j
1O
0d
1@
1,
#937500
0(
0!
0$
0#
0"
0=
09
08
07
06
0K
0C
0J
0L
0E
1]
1_
1a
1^
1`
1M
0N
1P
0X
1i
0j
0O
1U
0e
1d
0V
1b
0@
0,
0>
0*
