ce1901/lab/08_digibot_fpga_display/simulation/qsim/digibotdisplay.msim.vcd
$comment
	File created using the following command:
		vcd file digibotdisplay.msim.vcd -direction
$end
$date
	Tue Feb 01 14:58:45 2022
$end
$version
	ModelSim Version 2020.1
$end
$timescale
	1ps
$end

$scope module digibotdisplay_vlg_vec_tst $end
$var reg 1 ! COLL $end
$var reg 1 " LEFT $end
$var reg 1 # RIGHT $end
$var wire 1 $ HEX00 $end
$var wire 1 % HEX01 $end
$var wire 1 & HEX02 $end
$var wire 1 ' HEX03 $end
$var wire 1 ( HEX04 $end
$var wire 1 ) HEX05 $end
$var wire 1 * HEX06 $end
$var wire 1 + LDIR $end
$var wire 1 , LEN $end
$var wire 1 - RDIR $end
$var wire 1 . REN $end

$scope module i1 $end
$var wire 1 / gnd $end
$var wire 1 0 vcc $end
$var wire 1 1 unknown $end
$var tri1 1 2 devclrn $end
$var tri1 1 3 devpor $end
$var tri1 1 4 devoe $end
$var wire 1 5 ~QUARTUS_CREATED_GND~I_combout $end
$var wire 1 6 ~QUARTUS_CREATED_UNVM~~busy $end
$var wire 1 7 ~QUARTUS_CREATED_ADC1~~eoc $end
$var wire 1 8 ~QUARTUS_CREATED_ADC2~~eoc $end
$var wire 1 9 LEN~output_o $end
$var wire 1 : REN~output_o $end
$var wire 1 ; LDIR~output_o $end
$var wire 1 < RDIR~output_o $end
$var wire 1 = HEX00~output_o $end
$var wire 1 > HEX01~output_o $end
$var wire 1 ? HEX02~output_o $end
$var wire 1 @ HEX03~output_o $end
$var wire 1 A HEX04~output_o $end
$var wire 1 B HEX05~output_o $end
$var wire 1 C HEX06~output_o $end
$var wire 1 D LEFT~input_o $end
$var wire 1 E COLL~input_o $end
$var wire 1 F inst4|sub|79~0_combout $end
$var wire 1 G RIGHT~input_o $end
$var wire 1 H inst5|sub|79~combout $end
$var wire 1 I inst10|82~0_combout $end
$var wire 1 J inst10|83~0_combout $end
$var wire 1 K inst10|84~0_combout $end
$var wire 1 L inst10|85~0_combout $end
$var wire 1 M inst10|86~0_combout $end
$var wire 1 N inst10|5~0_combout $end
$upscope $end
$upscope $end
$enddefinitions $end
#0
$dumpvars
0!
0"
0#
1$
1%
1&
1'
1(
1)
1*
0+
0,
0-
0.
0/
10
x1
12
13
14
05
z6
z7
z8
09
0:
0;
0<
1=
1>
1?
1@
1A
1B
1C
0D
0E
0F
0G
0H
1I
1J
0K
1L
0M
1N
$end
#125000
1#
1G
1K
0N
0L
1H
1:
1<
0A
0C
0@
0'
0*
0(
1-
1.
#250000
1"
0#
0G
1D
1L
0J
0H
1F
19
1;
0:
0<
0?
1A
1(
0&
0-
0.
1+
1,
#375000
1#
1G
1M
0K
1J
0I
1H
1:
1<
0>
1?
1@
0B
0)
1'
1&
0%
1-
1.
#500000
1!
0"
0#
0G
0D
1E
1K
0L
1I
0H
0F
09
0;
0:
0<
1>
0A
0@
0'
0(
1%
0-
0.
0+
0,
#625000
1#
1G
#750000
1"
0#
0G
1D
#875000
1#
1G
