ce1901/lab/05_digibot/simulation/qsim/digibotmux.msim.vcd
$comment
	File created using the following command:
		vcd file digibotmux.msim.vcd -direction
$end
$date
	Tue Jan 11 13:19:41 2022
$end
$version
	ModelSim Version 2020.1
$end
$timescale
	1ps
$end

$scope module digibotmux_vlg_vec_tst $end
$var reg 1 ! COLL $end
$var reg 1 " LEFT $end
$var reg 1 # RIGHT $end
$var wire 1 $ LDIR $end
$var wire 1 % RDIR $end

$scope module i1 $end
$var wire 1 & gnd $end
$var wire 1 ' vcc $end
$var wire 1 ( unknown $end
$var tri1 1 ) devclrn $end
$var tri1 1 * devpor $end
$var tri1 1 + devoe $end
$var wire 1 , ~QUARTUS_CREATED_GND~I_combout $end
$var wire 1 - LEFT~input_o $end
$var wire 1 . COLL~input_o $end
$var wire 1 / inst|sub|79~combout $end
$var wire 1 0 RIGHT~input_o $end
$var wire 1 1 inst3|sub|79~combout $end
$upscope $end
$upscope $end
$enddefinitions $end
#0
$dumpvars
0!
0"
0#
0$
0%
0&
1'
x(
1)
1*
1+
0,
0-
0.
0/
00
01
$end
#125000
1#
10
11
1%
#250000
1"
0#
1-
00
01
1/
1$
0%
#375000
1#
10
11
1%
#500000
1!
0"
0#
1.
0-
00
01
0/
0$
0%
#625000
1#
10
#750000
1"
0#
1-
00
#875000
1#
10
